./configs/nes/emulators.cfg
./configs/nes/retroarch.cfg
./configs/zxspectrum/emulators.cfg
./configs/zxspectrum/retroarch.cfg
./configs/atari7800/emulators.cfg
./configs/atari7800/retroarch.cfg
./configs/fds/emulators.cfg
./configs/fds/retroarch.cfg
./configs/n64/mupen64plus.cfg
./configs/n64/emulators.cfg
./configs/n64/retroarch.cfg
./configs/atari800/lr-atari800.cfg
./configs/atari800/emulators.cfg
./configs/atari800/retroarch.cfg
./configs/pcengine/emulators.cfg
./configs/pcengine/retroarch.cfg
./configs/atarilynx/emulators.cfg
./configs/atarilynx/retroarch.cfg
./configs/atari2600/emulators.cfg
./configs/atari2600/retroarch.cfg
./configs/megadrive/emulators.cfg
./configs/megadrive/retroarch.cfg
./configs/ngpc/emulators.cfg
./configs/ngpc/retroarch.cfg
./configs/neogeo/emulators.cfg
./configs/neogeo/retroarch.cfg
./configs/mastersystem/emulators.cfg
./configs/mastersystem/retroarch.cfg
./configs/amiga/amiberry/conf/retroarch.cfg
./configs/amiga/emulators.cfg
./configs/coleco/retroarch-core-options.cfg
./configs/coleco/emulators.cfg
./configs/coleco/retroarch.cfg
./configs/gbc/emulators.cfg
./configs/gbc/retroarch.cfg
./configs/ngp/emulators.cfg
./configs/ngp/retroarch.cfg
./configs/atari5200/emulators.cfg
./configs/atari5200/retroarch.cfg
./configs/msx/emulators.cfg
./configs/msx/retroarch.cfg
./configs/snes/emulators.cfg
./configs/snes/retroarch.cfg
./configs/arcade/emulators.cfg
./configs/arcade/retroarch.cfg
./configs/fba/emulators.cfg
./configs/fba/retroarch.cfg
./configs/mame-libretro/emulators.cfg
./configs/mame-libretro/retroarch.cfg
./configs/sg-1000/emulators.cfg
./configs/sg-1000/retroarch.cfg
./configs/sega32x/emulators.cfg
./configs/sega32x/retroarch.cfg
./configs/gb/emulators.cfg
./configs/gb/retroarch.cfg
./configs/all/runcommand-launch-dialog.cfg
./configs/all/retroarch-core-options.cfg
./configs/all/autoconf.cfg
./configs/all/emulationstation/es_temporaryinput.cfg
./configs/all/emulationstation/es_input.cfg
./configs/all/emulationstation/es_settings.cfg
./configs/all/runcommand.cfg
./configs/all/retroarch.cfg
./configs/all/videomodes.cfg
./configs/all/retroarch/autoconfig/Logitech Gamepad F710.cfg
./configs/all/retroarch/autoconfig/Logitech Logitech Cordless RumblePad 2.cfg
./configs/all/dispmanx.cfg
./configs/all/splashscreen.cfg
./configs/segacd/emulators.cfg
./configs/segacd/retroarch.cfg
./configs/psp/emulators.cfg
./configs/psp/retroarch.cfg
./configs/gba/emulators.cfg
./configs/gba/retroarch.cfg
./configs/psx/emulators.cfg
./configs/psx/retroarch.cfg
./configs/vectrex/emulators.cfg
./configs/vectrex/retroarch.cfg
./configs/dreamcast/emu.cfg
./configs/dreamcast/emulators.cfg
./configs/dreamcast/mappings/controller_gcwz.cfg
./configs/dreamcast/mappings/keyboard.cfg
./configs/dreamcast/mappings/controller_xpad.cfg
./configs/dreamcast/mappings/controller_xboxdrv.cfg
./configs/dreamcast/mappings/controller_generic.cfg
./configs/dreamcast/mappings/evdev_Logitech Gamepad F710.cfg
./configs/dreamcast/mappings/evdev_Logitech Logitech Cordless RumblePad 2.cfg
./configs/dreamcast/mappings/controller_pandora.cfg
./configs/amstradcpc/emulators.cfg
./configs/amstradcpc/retroarch.cfg
./configs/gamegear/emulators.cfg
./configs/gamegear/retroarch.cfg
./emulators/reicast/share/reicast/mappings/controller_gcwz.cfg
./emulators/reicast/share/reicast/mappings/keyboard.cfg
./emulators/reicast/share/reicast/mappings/controller_xpad.cfg
./emulators/reicast/share/reicast/mappings/controller_xboxdrv.cfg
./emulators/reicast/share/reicast/mappings/controller_generic.cfg
./emulators/reicast/share/reicast/mappings/controller_pandora.cfg
./emulators/retroarch/etc/retroarch.cfg
./emulators/retroarch/retroarch.cfg
